^C:\USERS\ADMIN\DESKTOP\MATZOV\WORD COUNT\MATZOV_C\MATZOV_C\WORD_COUNT.C
C:\USERS\ADMIN\DESKTOP\MATZOV\WORD COUNT\MATZOV_C\MATZOV_C\DEBUG\VC142.PDB
C:\USERS\ADMIN\DESKTOP\MATZOV\WORD COUNT\MATZOV_C\MATZOV_C\DEBUG\VC142.IDB
C:\USERS\ADMIN\DESKTOP\MATZOV\WORD COUNT\MATZOV_C\MATZOV_C\DEBUG\WORD_COUNT.OBJ
