^C:\USERS\ROEI\DESKTOP\MATZOV\MATZOV_C\MATZOV_C\MATZOV_C\DEBUG\WORD_COUNT.OBJ
/OUT:"C:\USERS\ROEI\DESKTOP\MATZOV\MATZOV_C\MATZOV_C\DEBUG\MATZOV_C.EXE" /INCREMENTAL /NOLOGO KERNEL32.LIB USER32.LIB GDI32.LIB WINSPOOL.LIB COMDLG32.LIB ADVAPI32.LIB SHELL32.LIB OLE32.LIB OLEAUT32.LIB UUID.LIB ODBC32.LIB ODBCCP32.LIB /MANIFEST /MANIFESTUAC:"level='asInvoker' uiAccess='false'" /manifest:embed /DEBUG:FASTLINK /PDB:"C:\USERS\ROEI\DESKTOP\MATZOV\MATZOV_C\MATZOV_C\DEBUG\MATZOV_C.PDB" /SUBSYSTEM:CONSOLE /TLBID:1 /DYNAMICBASE /NXCOMPAT /IMPLIB:"C:\USERS\ROEI\DESKTOP\MATZOV\MATZOV_C\MATZOV_C\DEBUG\MATZOV_C.LIB" /MACHINE:X86 DEBUG\WORD_COUNT.OBJ
^C:\USERS\ADMIN\DESKTOP\MATZOV\WORD COUNT\MATZOV_C\MATZOV_C\DEBUG\WORD_COUNT.OBJ
/OUT:"C:\USERS\ADMIN\DESKTOP\MATZOV\WORD COUNT\MATZOV_C\DEBUG\MATZOV_C.EXE" /INCREMENTAL /NOLOGO KERNEL32.LIB USER32.LIB GDI32.LIB WINSPOOL.LIB COMDLG32.LIB ADVAPI32.LIB SHELL32.LIB OLE32.LIB OLEAUT32.LIB UUID.LIB ODBC32.LIB ODBCCP32.LIB /MANIFEST /MANIFESTUAC:"level='asInvoker' uiAccess='false'" /manifest:embed /DEBUG:FASTLINK /PDB:"C:\USERS\ADMIN\DESKTOP\MATZOV\WORD COUNT\MATZOV_C\DEBUG\MATZOV_C.PDB" /SUBSYSTEM:CONSOLE /TLBID:1 /DYNAMICBASE /NXCOMPAT /IMPLIB:"C:\USERS\ADMIN\DESKTOP\MATZOV\WORD COUNT\MATZOV_C\DEBUG\MATZOV_C.LIB" /MACHINE:X86 DEBUG\WORD_COUNT.OBJ
