^C:\USERS\ADMIN\DESKTOP\MATZOV\WORD COUNT\MATZOV_C\MATZOV_C\DEBUG\WORD_COUNT.OBJ
C:\USERS\ADMIN\DESKTOP\MATZOV\WORD COUNT\MATZOV_C\DEBUG\MATZOV_C.EXE
C:\USERS\ADMIN\DESKTOP\MATZOV\WORD COUNT\MATZOV_C\DEBUG\MATZOV_C.ILK
C:\USERS\ADMIN\DESKTOP\MATZOV\WORD COUNT\MATZOV_C\DEBUG\MATZOV_C.PDB
